[gd_scene load_steps=2 format=2]

[ext_resource path="res://assets/tilesets/hospital.png" type="Texture" id=1]

[node name="Drawers1" type="Sprite"]
texture = ExtResource( 1 )
region_enabled = true
region_rect = Rect2( -0.0438919, 63.3049, 32.2264, 33.4659 )
